…
### Les prix de vente dans les différents quartiers(Neighborhoods)

Le graphique représente les prix de vente médians les plus élevés selon les quartiers de la ville.

``` r
prix_quartiers <- train_col %>%
  select(Neighborhood, SalePrice) %>%
  group_by(Neighborhood) %>%
  summarise(mediane = median(SalePrice), IQR = IQR(SalePrice))

prix_quartiers
```

    ## # A tibble: 25 x 3
    ##    Neighborhood mediane      IQR
    ##          <fctr>   <dbl>    <dbl>
    ##  1      Blmngtn  191000 39490.00
    ##  2      Blueste  137500 13500.00
    ##  3       BrDale  106000 27000.00
    ##  4      BrkSide  124300 40675.00
    ##  5      ClearCr  200250 58475.00
    ##  6      CollgCr  197200 72766.25
    ##  7      Crawfor  200624 79750.00
    ##  8      Edwards  121750 43725.00
    ##  9      Gilbert  181000 23200.00
    ## 10       IDOTRR  103000 39500.00
    ## # ... with 15 more rows
…
